{

    "name": "mobile",
    "prefix": "m",

    "break": {
        "break-max": "480px",
        "break-min": ""
    },

    "container": {
        "max-width": "100%",
        "padding": 1.5
    },

    "typo": {
        "font-size": "14px",
        "line": "20px"
    }

}
